{
  "name": "Admin",
  "alias": "admin",
  "description": "",
  "keywords": [],
  "permission": [
    "access",
    "roles",
    "admins",
    "settings",
    "full-admin"
  ],
  "active": 1,
  "auto_localization": false,
  "order": 0,
  "priority": 0,
  "providers": [
    "Modules\\Admin\\Providers\\AdminServiceProvider"
  ],
  "aliases": {
  },
  "files": [
    "start.php"
  ],
  "menu": [
    {
      "name": "common.dashboard",
      "route": "admin.dashboard",
      "icon": "pe-7s-graph",
      "order": 0
    },
    {
      "name": "common.system",
      "slug": "system",
      "icon": "icon-settings",
      "order": 999
    },
    {
      "name": "common.administrators",
      "slug": "admins",
      "icon": "icon-user",
      "order": 10
    },
    {
      "name": "common.admins",
      "route": "admin.users.index",
      "icon": "icon-user",
      "parent": "admins"
    },
    {
      "name": "common.groups",
      "route": "admin.roles.index",
      "icon": "icon-user",
      "parent": "admins",
      "hide": true
    }
  ]
}